<?xml version="1.0" encoding="utf-8"?>
<!-- Generated by Mocodo 4.2.8 -->
<svg width="1295" height="539" viewBox="0 0 1295 539" xmlns="http://www.w3.org/2000/svg">
<rect x="0" y="0" width="1295" height="499" fill="#ffffff" stroke="none" stroke-width="0"/>

<!-- Association L_CTRANSLATION -->
<g>
	<line x1="90" y1="177" x2="90" y2="51" stroke="#878787" stroke-width="2"/>
	<line x1="242" y1="51" x2="90" y2="51" stroke="#878787" stroke-width="2"/>
	<g>
		<path d="M124 26 a14 14 90 0 1 14 14 V51 h-96 V40 a14 14 90 0 1 14 -14" fill="#bababa" stroke="#bababa" stroke-width="0"/>
		<path d="M138 51 v11 a14 14 90 0 1 -14 14 H56 a14 14 90 0 1 -14 -14 V51 H96" fill="#e0e0e0" stroke="#e0e0e0" stroke-width="0"/>
		<rect x="42" y="26" width="96" height="50" fill="none" rx="14" stroke="#878787" stroke-width="2"/>
		<line x1="42" y1="51" x2="138" y2="51" stroke="#878787" stroke-width="1"/>
		<text x="49" y="43.75" fill="#000000" font-family="Verdana" font-size="12">l_ctranslation</text>
	</g>
	<text x="95" y="118" fill="#b2182b" font-family="Verdana" font-size="12">1,1</text>
	<text x="173" y="68" fill="#b2182b" font-family="Verdana" font-size="12">0,N</text>
</g>

<!-- Association L_VERB -->
<g>
	<line x1="609" y1="177" x2="803" y2="51" stroke="#878787" stroke-width="2"/>
	<line x1="1004" y1="51" x2="803" y2="51" stroke="#878787" stroke-width="2"/>
	<g>
		<path d="M816 26 a14 14 90 0 1 14 14 V51 h-54 V40 a14 14 90 0 1 14 -14" fill="#bababa" stroke="#bababa" stroke-width="0"/>
		<path d="M830 51 v11 a14 14 90 0 1 -14 14 H790 a14 14 90 0 1 -14 -14 V51 H54" fill="#e0e0e0" stroke="#e0e0e0" stroke-width="0"/>
		<rect x="776" y="26" width="54" height="50" fill="none" rx="14" stroke="#878787" stroke-width="2"/>
		<line x1="776" y1="51" x2="830" y2="51" stroke="#878787" stroke-width="1"/>
		<text x="784" y="43.75" fill="#000000" font-family="Verdana" font-size="12">l_verb</text>
	</g>
	<text x="647" y="167.57" fill="#b2182b" font-family="Verdana" font-size="12">1,1</text>
	<text x="948" y="68" fill="#b2182b" font-family="Verdana" font-size="12">0,N</text>
</g>

<!-- Association L_VERBLOCALIZATION -->
<g>
	<line x1="1004" y1="51" x2="1211" y2="51" stroke="#878787" stroke-width="2"/>
	<line x1="1211" y1="177" x2="1211" y2="51" stroke="#878787" stroke-width="2"/>
	<g>
		<path d="M1257 26 a14 14 90 0 1 14 14 V51 h-120 V40 a14 14 90 0 1 14 -14" fill="#bababa" stroke="#bababa" stroke-width="0"/>
		<path d="M1271 51 v11 a14 14 90 0 1 -14 14 H1165 a14 14 90 0 1 -14 -14 V51 H120" fill="#e0e0e0" stroke="#e0e0e0" stroke-width="0"/>
		<rect x="1151" y="26" width="120" height="50" fill="none" rx="14" stroke="#878787" stroke-width="2"/>
		<line x1="1151" y1="51" x2="1271" y2="51" stroke="#878787" stroke-width="1"/>
		<text x="1158" y="43.75" fill="#000000" font-family="Verdana" font-size="12">l_verblocalization</text>
	</g>
	<text x="1038" y="68" fill="#b2182b" font-family="Verdana" font-size="12">0,N</text>
	<text x="1216" y="93" fill="#b2182b" font-family="Verdana" font-size="12">1,1</text>
</g>

<!-- Association L_CATEGORY -->
<g>
	<line x1="373" y1="177" x2="242" y2="177" stroke="#878787" stroke-width="2"/>
	<line x1="242" y1="51" x2="242" y2="177" stroke="#878787" stroke-width="2"/>
	<g>
		<path d="M267 152 a14 14 90 0 1 14 14 V177 h-78 V166 a14 14 90 0 1 14 -14" fill="#bababa" stroke="#bababa" stroke-width="0"/>
		<path d="M281 177 v11 a14 14 90 0 1 -14 14 H217 a14 14 90 0 1 -14 -14 V177 H78" fill="#e0e0e0" stroke="#e0e0e0" stroke-width="0"/>
		<rect x="203" y="152" width="78" height="50" fill="none" rx="14" stroke="#878787" stroke-width="2"/>
		<line x1="203" y1="177" x2="281" y2="177" stroke="#878787" stroke-width="1"/>
		<text x="210" y="169.75" fill="#000000" font-family="Verdana" font-size="12">l_category</text>
	</g>
	<text x="327" y="194" fill="#b2182b" font-family="Verdana" font-size="12">1,1</text>
	<text x="247" y="110" fill="#b2182b" font-family="Verdana" font-size="12">0,N</text>
</g>

<!-- Association L_TAG -->
<g>
	<line x1="609" y1="177" x2="467" y2="177" stroke="#878787" stroke-width="2"/>
	<line x1="373" y1="177" x2="467" y2="177" stroke="#878787" stroke-width="2"/>
	<g>
		<path d="M476 152 a14 14 90 0 1 14 14 V177 h-46 V166 a14 14 90 0 1 14 -14" fill="#bababa" stroke="#bababa" stroke-width="0"/>
		<path d="M490 177 v11 a14 14 90 0 1 -14 14 H458 a14 14 90 0 1 -14 -14 V177 H46" fill="#e0e0e0" stroke="#e0e0e0" stroke-width="0"/>
		<rect x="444" y="152" width="46" height="50" fill="none" rx="14" stroke="#878787" stroke-width="2"/>
		<line x1="444" y1="177" x2="490" y2="177" stroke="#878787" stroke-width="1"/>
		<text x="452" y="169.75" fill="#000000" font-family="Verdana" font-size="12">l_tag</text>
	</g>
	<text x="550" y="194" fill="#b2182b" font-family="Verdana" font-size="12">1,1</text>
	<text x="398" y="194" fill="#b2182b" font-family="Verdana" font-size="12">0,N</text>
</g>

<!-- Association L_VTRANSLATION -->
<g>
	<line x1="803" y1="177" x2="1004" y2="177" stroke="#878787" stroke-width="2"/>
	<line x1="1004" y1="51" x2="1004" y2="177" stroke="#878787" stroke-width="2"/>
	<g>
		<path d="M1039 152 a14 14 90 0 1 14 14 V177 h-98 V166 a14 14 90 0 1 14 -14" fill="#bababa" stroke="#bababa" stroke-width="0"/>
		<path d="M1053 177 v11 a14 14 90 0 1 -14 14 H969 a14 14 90 0 1 -14 -14 V177 H98" fill="#e0e0e0" stroke="#e0e0e0" stroke-width="0"/>
		<rect x="955" y="152" width="98" height="50" fill="none" rx="14" stroke="#878787" stroke-width="2"/>
		<line x1="955" y1="177" x2="1053" y2="177" stroke="#878787" stroke-width="1"/>
		<text x="963" y="169.75" fill="#000000" font-family="Verdana" font-size="12">l_vtranslation</text>
	</g>
	<text x="859" y="194" fill="#b2182b" font-family="Verdana" font-size="12">1,1</text>
	<text x="1009" y="102" fill="#b2182b" font-family="Verdana" font-size="12">0,N</text>
</g>

<!-- Association L_TTRANSLATION -->
<g>
	<line x1="242" y1="304" x2="373" y2="304" stroke="#878787" stroke-width="2"/>
	<line x1="373" y1="177" x2="373" y2="304" stroke="#878787" stroke-width="2"/>
	<g>
		<path d="M407 279 a14 14 90 0 1 14 14 V304 h-96 V293 a14 14 90 0 1 14 -14" fill="#bababa" stroke="#bababa" stroke-width="0"/>
		<path d="M421 304 v11 a14 14 90 0 1 -14 14 H339 a14 14 90 0 1 -14 -14 V304 H96" fill="#e0e0e0" stroke="#e0e0e0" stroke-width="0"/>
		<rect x="325" y="279" width="96" height="50" fill="none" rx="14" stroke="#878787" stroke-width="2"/>
		<line x1="325" y1="304" x2="421" y2="304" stroke="#878787" stroke-width="1"/>
		<text x="333" y="296.75" fill="#000000" font-family="Verdana" font-size="12">l_ttranslation</text>
	</g>
	<text x="298" y="321" fill="#b2182b" font-family="Verdana" font-size="12">1,1</text>
	<text x="378" y="228" fill="#b2182b" font-family="Verdana" font-size="12">0,N</text>
</g>

<!-- Association VERB_TAG_SOURCES_NEW -->
<g>
	<line x1="609" y1="177" x2="609" y2="304" stroke="#878787" stroke-width="2"/>
	<line x1="803" y1="422" x2="609" y2="304" stroke="#878787" stroke-width="2"/>
	<g>
		<path d="M673 279 a14 14 90 0 1 14 14 V304 h-156 V293 a14 14 90 0 1 14 -14" fill="#bababa" stroke="#bababa" stroke-width="0"/>
		<path d="M687 304 v11 a14 14 90 0 1 -14 14 H545 a14 14 90 0 1 -14 -14 V304 H156" fill="#e0e0e0" stroke="#e0e0e0" stroke-width="0"/>
		<rect x="531" y="279" width="156" height="50" fill="none" rx="14" stroke="#878787" stroke-width="2"/>
		<line x1="531" y1="304" x2="687" y2="304" stroke="#878787" stroke-width="1"/>
		<text x="539" y="296.75" fill="#000000" font-family="Verdana" font-size="12">verb_tag_sources_new</text>
	</g>
	<text x="614" y="219" fill="#b2182b" font-family="Verdana" font-size="12">0,N</text>
	<text x="750" y="418.48" fill="#b2182b" font-family="Verdana" font-size="12">0,N</text>
</g>

<!-- Association VERB_TRANSLATION_SOURCES -->
<g>
	<line x1="803" y1="177" x2="803" y2="304" stroke="#878787" stroke-width="2"/>
	<line x1="803" y1="422" x2="803" y2="304" stroke="#878787" stroke-width="2"/>
	<g>
		<path d="M873 279 a14 14 90 0 1 14 14 V304 h-168 V293 a14 14 90 0 1 14 -14" fill="#bababa" stroke="#bababa" stroke-width="0"/>
		<path d="M887 304 v11 a14 14 90 0 1 -14 14 H733 a14 14 90 0 1 -14 -14 V304 H168" fill="#e0e0e0" stroke="#e0e0e0" stroke-width="0"/>
		<rect x="719" y="279" width="168" height="50" fill="none" rx="14" stroke="#878787" stroke-width="2"/>
		<line x1="719" y1="304" x2="887" y2="304" stroke="#878787" stroke-width="1"/>
		<text x="727" y="296.75" fill="#000000" font-family="Verdana" font-size="12">verb_translation_sources</text>
	</g>
	<text x="808" y="236" fill="#b2182b" font-family="Verdana" font-size="12">0,N</text>
	<text x="808" y="346" fill="#b2182b" font-family="Verdana" font-size="12">0,N</text>
</g>

<!-- Association VERB_LOCALIZATION_SOURCES -->
<g>
	<line x1="1211" y1="177" x2="1004" y2="304" stroke="#878787" stroke-width="2"/>
	<line x1="803" y1="422" x2="1004" y2="304" stroke="#878787" stroke-width="2"/>
	<g>
		<path d="M1075 279 a14 14 90 0 1 14 14 V304 h-170 V293 a14 14 90 0 1 14 -14" fill="#bababa" stroke="#bababa" stroke-width="0"/>
		<path d="M1089 304 v11 a14 14 90 0 1 -14 14 H933 a14 14 90 0 1 -14 -14 V304 H170" fill="#e0e0e0" stroke="#e0e0e0" stroke-width="0"/>
		<rect x="919" y="279" width="170" height="50" fill="none" rx="14" stroke="#878787" stroke-width="2"/>
		<line x1="919" y1="304" x2="1089" y2="304" stroke="#878787" stroke-width="1"/>
		<text x="926" y="296.75" fill="#000000" font-family="Verdana" font-size="12">verb_localization_sources</text>
	</g>
	<text x="1131" y="206.26" fill="#b2182b" font-family="Verdana" font-size="12">0,N</text>
	<text x="834" y="419.18" fill="#b2182b" font-family="Verdana" font-size="12">0,N</text>
</g>

<!-- Association L_DTRANSLATION -->
<g>
	<line x1="1211" y1="177" x2="1211" y2="304" stroke="#878787" stroke-width="2"/>
	<line x1="1211" y1="422" x2="1211" y2="304" stroke="#878787" stroke-width="2"/>
	<g>
		<path d="M1246 279 a14 14 90 0 1 14 14 V304 h-98 V293 a14 14 90 0 1 14 -14" fill="#bababa" stroke="#bababa" stroke-width="0"/>
		<path d="M1260 304 v11 a14 14 90 0 1 -14 14 H1176 a14 14 90 0 1 -14 -14 V304 H98" fill="#e0e0e0" stroke="#e0e0e0" stroke-width="0"/>
		<rect x="1162" y="279" width="98" height="50" fill="none" rx="14" stroke="#878787" stroke-width="2"/>
		<line x1="1162" y1="304" x2="1260" y2="304" stroke="#878787" stroke-width="1"/>
		<text x="1169" y="296.75" fill="#000000" font-family="Verdana" font-size="12">l_dtranslation</text>
	</g>
	<text x="1216" y="270" fill="#b2182b" font-family="Verdana" font-size="12">0,N</text>
	<text x="1216" y="355" fill="#b2182b" font-family="Verdana" font-size="12">1,1</text>
</g>

<!-- Association L_STRANSLATION -->
<g>
	<line x1="467" y1="422" x2="609" y2="422" stroke="#878787" stroke-width="2"/>
	<line x1="803" y1="422" x2="609" y2="422" stroke="#878787" stroke-width="2"/>
	<g>
		<path d="M643 397 a14 14 90 0 1 14 14 V422 h-96 V411 a14 14 90 0 1 14 -14" fill="#bababa" stroke="#bababa" stroke-width="0"/>
		<path d="M657 422 v11 a14 14 90 0 1 -14 14 H575 a14 14 90 0 1 -14 -14 V422 H96" fill="#e0e0e0" stroke="#e0e0e0" stroke-width="0"/>
		<rect x="561" y="397" width="96" height="50" fill="none" rx="14" stroke="#878787" stroke-width="2"/>
		<line x1="561" y1="422" x2="657" y2="422" stroke="#878787" stroke-width="1"/>
		<text x="568" y="414.75" fill="#000000" font-family="Verdana" font-size="12">l_stranslation</text>
	</g>
	<text x="534" y="439" fill="#b2182b" font-family="Verdana" font-size="12">1,1</text>
	<text x="750" y="439" fill="#b2182b" font-family="Verdana" font-size="12">0,N</text>
</g>

<!-- Association DESCRIPTION_TRANSLATION_SOURCE -->
<g>
	<line x1="1211" y1="422" x2="1004" y2="422" stroke="#878787" stroke-width="2"/>
	<line x1="803" y1="422" x2="1004" y2="422" stroke="#878787" stroke-width="2"/>
	<g>
		<path d="M1090 397 a14 14 90 0 1 14 14 V422 h-200 V411 a14 14 90 0 1 14 -14" fill="#bababa" stroke="#bababa" stroke-width="0"/>
		<path d="M1104 422 v11 a14 14 90 0 1 -14 14 H918 a14 14 90 0 1 -14 -14 V422 H200" fill="#e0e0e0" stroke="#e0e0e0" stroke-width="0"/>
		<rect x="904" y="397" width="200" height="50" fill="none" rx="14" stroke="#878787" stroke-width="2"/>
		<line x1="904" y1="422" x2="1104" y2="422" stroke="#878787" stroke-width="1"/>
		<text x="911" y="414.75" fill="#000000" font-family="Verdana" font-size="12">description_translation_source</text>
	</g>
	<text x="1109" y="439" fill="#b2182b" font-family="Verdana" font-size="12">0,N</text>
	<text x="834" y="439" fill="#b2182b" font-family="Verdana" font-size="12">0,N</text>
</g>

<!-- Entity TAGCATEGORY -->
<g>
	<g>
		<rect x="200" y="9" width="84" height="25" fill="#f4a582" stroke="none" stroke-width="0" opacity="1"/>
		<rect x="200" y="34" width="84" height="59" fill="#fddbc7" stroke="none" stroke-width="0" opacity="1"/>
		<rect x="200" y="9" width="84" height="84" fill="none" stroke="#d6604d" stroke-width="2" opacity="1"/>
		<line x1="200" y1="34" x2="284" y2="34" stroke="#d6604d" stroke-width="1"/>
	</g>
	<text x="206" y="26.75" fill="#000000" font-family="Verdana" font-size="12">tagcategory</text>
	<text x="205" y="51.8" fill="#000000" font-family="Verdana" font-size="12">id</text>
	<line x1="205" y1="54" x2="217" y2="54" stroke="#000000" stroke-width="1"/>
	<text x="205" y="68.8" fill="#000000" font-family="Verdana" font-size="12">code</text>
	<text x="205" y="85.8" fill="#000000" font-family="Verdana" font-size="12">color</text>
</g>

<!-- Entity VERB -->
<g>
	<g>
		<rect x="975" y="17" width="58" height="25" fill="#f4a582" stroke="none" stroke-width="0" opacity="1"/>
		<rect x="975" y="42" width="58" height="43" fill="#fddbc7" stroke="none" stroke-width="0" opacity="1"/>
		<rect x="975" y="17" width="58" height="68" fill="none" stroke="#d6604d" stroke-width="2" opacity="1"/>
		<line x1="975" y1="42" x2="1033" y2="42" stroke="#d6604d" stroke-width="1"/>
	</g>
	<text x="990" y="34.75" fill="#000000" font-family="Verdana" font-size="12">verb</text>
	<text x="980" y="59.8" fill="#000000" font-family="Verdana" font-size="12">id</text>
	<line x1="980" y1="62" x2="992" y2="62" stroke="#000000" stroke-width="1"/>
	<text x="980" y="76.8" fill="#000000" font-family="Verdana" font-size="12">enabled</text>
</g>

<!-- Entity TAG_CATEGORY_TRANSLATION -->
<g>
	<g>
		<rect x="9" y="126" width="162" height="25" fill="#f4a582" stroke="none" stroke-width="0" opacity="1"/>
		<rect x="9" y="151" width="162" height="77" fill="#fddbc7" stroke="none" stroke-width="0" opacity="1"/>
		<rect x="9" y="126" width="162" height="102" fill="none" stroke="#d6604d" stroke-width="2" opacity="1"/>
		<line x1="9" y1="151" x2="171" y2="151" stroke="#d6604d" stroke-width="1"/>
	</g>
	<text x="14" y="143.75" fill="#000000" font-family="Verdana" font-size="12">tag_category_translation</text>
	<text x="14" y="168.8" fill="#000000" font-family="Verdana" font-size="12">id</text>
	<line x1="14" y1="171" x2="26" y2="171" stroke="#000000" stroke-width="1"/>
	<text x="14" y="185.8" fill="#000000" font-family="Verdana" font-size="12">label</text>
	<text x="14" y="202.8" fill="#000000" font-family="Verdana" font-size="12">description</text>
	<text x="14" y="219.8" fill="#000000" font-family="Verdana" font-size="12">language_code</text>
</g>

<!-- Entity TAG -->
<g>
	<g>
		<rect x="353" y="143" width="40" height="25" fill="#f4a582" stroke="none" stroke-width="0" opacity="1"/>
		<rect x="353" y="168" width="40" height="43" fill="#fddbc7" stroke="none" stroke-width="0" opacity="1"/>
		<rect x="353" y="143" width="40" height="68" fill="none" stroke="#d6604d" stroke-width="2" opacity="1"/>
		<line x1="353" y1="168" x2="393" y2="168" stroke="#d6604d" stroke-width="1"/>
	</g>
	<text x="363" y="160.75" fill="#000000" font-family="Verdana" font-size="12">tag</text>
	<text x="358" y="185.8" fill="#000000" font-family="Verdana" font-size="12">id</text>
	<line x1="358" y1="188" x2="370" y2="188" stroke="#000000" stroke-width="1"/>
	<text x="358" y="202.8" fill="#000000" font-family="Verdana" font-size="12">code</text>
</g>

<!-- Entity VERB_TAG -->
<g>
	<g>
		<rect x="576" y="152" width="66" height="25" fill="#f4a582" stroke="none" stroke-width="0" opacity="1"/>
		<rect x="576" y="177" width="66" height="25" fill="#fddbc7" stroke="none" stroke-width="0" opacity="1"/>
		<rect x="576" y="152" width="66" height="50" fill="none" stroke="#d6604d" stroke-width="2" opacity="1"/>
		<line x1="576" y1="177" x2="642" y2="177" stroke="#d6604d" stroke-width="1"/>
	</g>
	<text x="582" y="169.75" fill="#000000" font-family="Verdana" font-size="12">verb_tag</text>
	<text x="581" y="194.8" fill="#000000" font-family="Verdana" font-size="12">id</text>
	<line x1="581" y1="197" x2="593" y2="197" stroke="#000000" stroke-width="1"/>
</g>

<!-- Entity VERBTRANSLATION -->
<g>
	<g>
		<rect x="752" y="135" width="102" height="25" fill="#f4a582" stroke="none" stroke-width="0" opacity="1"/>
		<rect x="752" y="160" width="102" height="59" fill="#fddbc7" stroke="none" stroke-width="0" opacity="1"/>
		<rect x="752" y="135" width="102" height="84" fill="none" stroke="#d6604d" stroke-width="2" opacity="1"/>
		<line x1="752" y1="160" x2="854" y2="160" stroke="#d6604d" stroke-width="1"/>
	</g>
	<text x="757" y="152.75" fill="#000000" font-family="Verdana" font-size="12">verbtranslation</text>
	<text x="757" y="177.8" fill="#000000" font-family="Verdana" font-size="12">id</text>
	<line x1="757" y1="180" x2="769" y2="180" stroke="#000000" stroke-width="1"/>
	<text x="757" y="194.8" fill="#000000" font-family="Verdana" font-size="12">translation</text>
	<text x="757" y="211.8" fill="#000000" font-family="Verdana" font-size="12">language_code</text>
</g>

<!-- Entity VERBLOCALIZATION -->
<g>
	<g>
		<rect x="1158" y="101" width="106" height="25" fill="#f4a582" stroke="none" stroke-width="0" opacity="1"/>
		<rect x="1158" y="126" width="106" height="127" fill="#fddbc7" stroke="none" stroke-width="0" opacity="1"/>
		<rect x="1158" y="101" width="106" height="152" fill="none" stroke="#d6604d" stroke-width="2" opacity="1"/>
		<line x1="1158" y1="126" x2="1264" y2="126" stroke="#d6604d" stroke-width="1"/>
	</g>
	<text x="1164" y="118.75" fill="#000000" font-family="Verdana" font-size="12">verblocalization</text>
	<text x="1163" y="143.8" fill="#000000" font-family="Verdana" font-size="12">id</text>
	<line x1="1163" y1="146" x2="1175" y2="146" stroke="#000000" stroke-width="1"/>
	<text x="1163" y="160.8" fill="#000000" font-family="Verdana" font-size="12">infinitive</text>
	<text x="1163" y="177.8" fill="#000000" font-family="Verdana" font-size="12">pronunciation</text>
	<text x="1163" y="194.8" fill="#000000" font-family="Verdana" font-size="12">base</text>
	<text x="1163" y="211.8" fill="#000000" font-family="Verdana" font-size="12">dialect_code</text>
	<text x="1163" y="228.8" fill="#000000" font-family="Verdana" font-size="12">category</text>
	<text x="1163" y="245.8" fill="#000000" font-family="Verdana" font-size="12">gou_mutation</text>
</g>

<!-- Entity TAG_TRANSLATION -->
<g>
	<g>
		<rect x="191" y="253" width="102" height="25" fill="#f4a582" stroke="none" stroke-width="0" opacity="1"/>
		<rect x="191" y="278" width="102" height="77" fill="#fddbc7" stroke="none" stroke-width="0" opacity="1"/>
		<rect x="191" y="253" width="102" height="102" fill="none" stroke="#d6604d" stroke-width="2" opacity="1"/>
		<line x1="191" y1="278" x2="293" y2="278" stroke="#d6604d" stroke-width="1"/>
	</g>
	<text x="196" y="270.75" fill="#000000" font-family="Verdana" font-size="12">tag_translation</text>
	<text x="196" y="295.8" fill="#000000" font-family="Verdana" font-size="12">id</text>
	<line x1="196" y1="298" x2="208" y2="298" stroke="#000000" stroke-width="1"/>
	<text x="196" y="312.8" fill="#000000" font-family="Verdana" font-size="12">label</text>
	<text x="196" y="329.8" fill="#000000" font-family="Verdana" font-size="12">description</text>
	<text x="196" y="346.8" fill="#000000" font-family="Verdana" font-size="12">language_code</text>
</g>

<!-- Entity SOURCE_TRANSLATION -->
<g>
	<g>
		<rect x="405" y="371" width="124" height="25" fill="#f4a582" stroke="none" stroke-width="0" opacity="1"/>
		<rect x="405" y="396" width="124" height="77" fill="#fddbc7" stroke="none" stroke-width="0" opacity="1"/>
		<rect x="405" y="371" width="124" height="102" fill="none" stroke="#d6604d" stroke-width="2" opacity="1"/>
		<line x1="405" y1="396" x2="529" y2="396" stroke="#d6604d" stroke-width="1"/>
	</g>
	<text x="411" y="388.75" fill="#000000" font-family="Verdana" font-size="12">source_translation</text>
	<text x="410" y="413.8" fill="#000000" font-family="Verdana" font-size="12">id</text>
	<line x1="410" y1="416" x2="422" y2="416" stroke="#000000" stroke-width="1"/>
	<text x="410" y="430.8" fill="#000000" font-family="Verdana" font-size="12">language_code</text>
	<text x="410" y="447.8" fill="#000000" font-family="Verdana" font-size="12">label</text>
	<text x="410" y="464.8" fill="#000000" font-family="Verdana" font-size="12">description</text>
</g>

<!-- Entity SOURCE -->
<g>
	<g>
		<rect x="777" y="354" width="52" height="25" fill="#f4a582" stroke="none" stroke-width="0" opacity="1"/>
		<rect x="777" y="379" width="52" height="111" fill="#fddbc7" stroke="none" stroke-width="0" opacity="1"/>
		<rect x="777" y="354" width="52" height="136" fill="none" stroke="#d6604d" stroke-width="2" opacity="1"/>
		<line x1="777" y1="379" x2="829" y2="379" stroke="#d6604d" stroke-width="1"/>
	</g>
	<text x="783" y="371.75" fill="#000000" font-family="Verdana" font-size="12">source</text>
	<text x="782" y="396.8" fill="#000000" font-family="Verdana" font-size="12">id</text>
	<line x1="782" y1="399" x2="794" y2="399" stroke="#000000" stroke-width="1"/>
	<text x="782" y="413.8" fill="#000000" font-family="Verdana" font-size="12">code</text>
	<text x="782" y="430.8" fill="#000000" font-family="Verdana" font-size="12">type</text>
	<text x="782" y="447.8" fill="#000000" font-family="Verdana" font-size="12">locale</text>
	<text x="782" y="464.8" fill="#000000" font-family="Verdana" font-size="12">url</text>
	<text x="782" y="481.8" fill="#000000" font-family="Verdana" font-size="12">active</text>
</g>

<!-- Entity DESCRIPTION_TRANSLATION -->
<g>
	<g>
		<rect x="1136" y="363" width="150" height="25" fill="#f4a582" stroke="none" stroke-width="0" opacity="1"/>
		<rect x="1136" y="388" width="150" height="93" fill="#fddbc7" stroke="none" stroke-width="0" opacity="1"/>
		<rect x="1136" y="363" width="150" height="118" fill="none" stroke="#d6604d" stroke-width="2" opacity="1"/>
		<line x1="1136" y1="388" x2="1286" y2="388" stroke="#d6604d" stroke-width="1"/>
	</g>
	<text x="1142" y="380.75" fill="#000000" font-family="Verdana" font-size="12">description_translation</text>
	<text x="1141" y="405.8" fill="#000000" font-family="Verdana" font-size="12">id</text>
	<line x1="1141" y1="408" x2="1153" y2="408" stroke="#000000" stroke-width="1"/>
	<text x="1141" y="422.8" fill="#000000" font-family="Verdana" font-size="12">verb_id</text>
	<text x="1141" y="439.8" fill="#000000" font-family="Verdana" font-size="12">verb_localization_id</text>
	<text x="1141" y="456.8" fill="#000000" font-family="Verdana" font-size="12">language_code</text>
	<text x="1141" y="473.8" fill="#000000" font-family="Verdana" font-size="12">content</text>
</g>

<!-- Link from &quot;id&quot; (DESCRIPTION_TRANSLATION) to &quot;id&quot; (VERB) -->
<path d="M1136 418.5 C1084.5 237 1101.67 55.5 1033 55.5" fill="none" stroke="#878787" stroke-width="2"/>
<polygon points="1033 55.5 1045 49.5 1041 55.5 1045 61.5" fill="#878787" stroke-width="0"/>
<circle cx="1136" cy="418.5" r="2" stroke="#878787" stroke-width="2" fill="#878787"/>
</svg>